<?xml version="1.0" encoding="utf-8"?>
<!-- Generator: Avocode 2.6.0 - http://avocode.com -->
<svg height="95" width="95" xmlns:xlink="http://www.w3.org/1999/xlink" xmlns="http://www.w3.org/2000/svg" viewBox="0 0 95 95">
    <defs>
        <linearGradient y2="91%" y1="0%" x2="0%" x1="42%" id="gradient-1">
            <stop stop-color="#142166" offset="0%" />
            <stop stop-color="#7cdabe" offset="100%" />
        </linearGradient>
    </defs>
    <path stroke-linejoin="miter" stroke-linecap="butt" stroke-width="2" stroke="#979797" fill="none" fill-rule="evenodd" d="M 79.93 14.55 C 61.87 -3.52 32.6 -3.51 14.55 14.55 C -3.51 32.62 -3.52 61.9 14.54 79.97 C 32.6 98.04 61.87 98.04 79.93 79.98 C 97.99 61.92 97.98 32.62 79.93 14.55 L 79.93 14.55 Z M 79.93 14.55" />
    <path fill="url(#gradient-1)" fill-rule="evenodd" d="M 54.43 53.11 C 56.93 50.34 58.5 46.64 58.5 42.55 C 58.5 33.99 51.67 27 43.25 27 C 34.83 27 28 33.99 28 42.55 C 28 51.12 34.83 58.11 43.25 58.11 C 46.68 58.11 49.83 56.96 52.38 55.01 L 63.72 66.58 C 64 66.86 64.34 67 64.69 67 C 65.03 67 65.4 66.86 65.65 66.58 C 66.18 66.04 66.18 65.15 65.65 64.58 L 54.43 53.11 L 54.43 53.11 Z M 30.76 42.55 C 30.76 35.54 36.35 29.82 43.25 29.82 C 50.13 29.82 55.74 35.52 55.74 42.55 C 55.74 49.59 50.15 55.29 43.25 55.29 C 36.35 55.29 30.76 49.57 30.76 42.55 L 30.76 42.55 Z M 30.76 42.55" />
</svg>