<?xml version="1.0" encoding="utf-8"?>
<!-- Generator: Avocode 2.6.0 - http://avocode.com -->
<svg height="56" width="62" xmlns:xlink="http://www.w3.org/1999/xlink" xmlns="http://www.w3.org/2000/svg" viewBox="0 0 67 130">
    <path fill="#000000" fill-rule="evenodd" d="M 57.2 0.65 L 10.13 0.65 C 5.09 0.65 0.89 4.72 0.89 9.61 L 0.89 120.39 C 0.89 125.28 5.09 129.35 10.13 129.35 L 57.2 129.35 C 62.24 129.35 66.45 125.28 66.45 120.39 L 66.45 9.61 C 66.45 4.72 62.24 0.65 57.2 0.65 L 57.2 0.65 Z M 64.76 120.39 C 64.76 124.46 61.4 127.72 57.2 127.72 L 10.13 127.72 C 5.93 127.72 2.57 124.46 2.57 120.39 L 2.57 9.61 C 2.57 5.54 5.93 2.28 10.13 2.28 L 57.2 2.28 C 61.4 2.28 64.76 5.54 64.76 9.61 L 64.76 120.39 Z M 64.76 120.39" />
    <path fill="#000000" fill-rule="evenodd" d="M 5.09 15.31 C 4.58 15.31 4.25 15.63 4.25 16.13 L 4.25 113.87 C 4.25 114.37 4.58 114.69 5.09 114.69 L 62.24 114.69 C 62.75 114.69 63.08 114.37 63.08 113.87 L 63.08 16.13 C 63.08 15.63 62.75 15.31 62.24 15.31 L 5.09 15.31 Z M 61.4 113.06 L 5.93 113.06 L 5.93 16.94 L 61.4 16.94 L 61.4 113.06 Z M 61.4 113.06" />
    <path fill="#000000" fill-rule="evenodd" d="M 33.67 117.13 C 31.31 117.13 29.46 118.92 29.46 121.2 C 29.46 123.49 31.31 125.28 33.67 125.28 C 36.02 125.28 37.87 123.49 37.87 121.2 C 37.87 118.92 35.86 117.13 33.67 117.13 L 33.67 117.13 Z M 33.67 123.65 C 32.32 123.65 31.14 122.51 31.14 121.2 C 31.14 119.9 32.32 118.76 33.67 118.76 C 35.02 118.76 36.19 119.9 36.19 121.2 C 36.19 122.51 35.02 123.65 33.67 123.65 L 33.67 123.65 Z M 33.67 123.65" />
    <path fill="#000000" fill-rule="evenodd" d="M 28.46 10.43 L 38.54 10.43 C 39.05 10.43 39.38 10.1 39.38 9.61 C 39.38 9.12 39.05 8.8 38.54 8.8 L 28.46 8.8 C 27.95 8.8 27.62 9.12 27.62 9.61 C 27.62 10.1 28.13 10.43 28.46 10.43 L 28.46 10.43 Z M 28.46 10.43" />
</svg>