<?xml version="1.0" encoding="utf-8"?>
<!-- Generator: Avocode 2.6.0 - http://avocode.com -->
<svg height="62" width="49" xmlns:xlink="http://www.w3.org/1999/xlink" xmlns="http://www.w3.org/2000/svg" viewBox="0 0 49 62">
    <path fill="#3a3a3a" fill-rule="evenodd" d="M 41.7 61.91 L 7.68 61.91 C 3.54 61.91 0.29 58.66 0.29 54.52 L 0.29 28.82 C 0.29 26.46 1.18 24.39 2.95 23.21 L 2.95 21.73 C 2.95 9.92 12.71 0.17 24.54 0.17 C 36.37 0.17 46.13 9.92 46.13 21.73 L 46.13 23.21 C 47.91 24.69 48.79 26.76 48.79 28.82 L 48.79 54.52 C 49.09 58.66 45.54 61.91 41.7 61.91 L 41.7 61.91 L 41.7 61.91 Z M 24.54 2.83 C 14.19 2.83 5.91 11.1 5.91 21.44 L 5.91 23.51 L 5.91 24.39 L 5.02 24.98 C 3.84 25.87 2.95 27.35 2.95 28.82 L 2.95 54.52 C 2.95 56.89 5.02 58.96 7.39 58.96 L 41.1 58.96 C 43.47 58.96 45.54 56.89 45.54 54.52 L 45.54 28.82 C 45.54 27.35 44.65 25.87 43.47 24.98 L 43.17 24.39 L 43.17 23.51 L 43.17 21.44 C 43.17 11.1 34.89 2.83 24.54 2.83 L 24.54 2.83 L 24.54 2.83 Z M 40.81 24.39 L 8.57 24.39 L 8.57 22.92 L 8.57 21.44 C 8.57 12.58 15.96 5.19 24.84 5.19 C 33.71 5.19 41.1 12.58 41.1 21.44 L 41.1 22.92 L 40.81 24.39 L 40.81 24.39 L 40.81 24.39 Z M 11.23 21.44 L 37.85 21.44 C 37.85 14.05 31.94 8.15 24.54 8.15 C 17.15 8.15 11.53 14.05 11.23 21.44 L 11.23 21.44 L 11.23 21.44 Z M 11.23 21.44" />
    <path fill="#3a3a3a" fill-rule="evenodd" d="M 0.29 34.73 L 19.51 34.73 L 19.51 37.69 L 0.29 37.69 L 0.29 34.73 Z M 0.29 34.73" />
    <path fill="#3a3a3a" fill-rule="evenodd" d="M 0.29 40.05 L 24.84 40.05 L 24.84 43 L 0.29 43 L 0.29 40.05 Z M 0.29 40.05" />
    <path fill="#3a3a3a" fill-rule="evenodd" d="M 1.77 45.66 L 20.99 45.66 L 20.99 48.62 L 1.77 48.62 L 1.77 45.66 Z M 1.77 45.66" />
</svg>