<?xml version="1.0" encoding="UTF-8" standalone="no"?>
<svg width="50px" height="50px" viewBox="0 0 50 50" version="1.1" xmlns="http://www.w3.org/2000/svg" xmlns:xlink="http://www.w3.org/1999/xlink">
    <!-- Generator: Sketch 3.6.1 (26313) - http://www.bohemiancoding.com/sketch -->
    <title>Lock</title>
    <desc>Created with Sketch.</desc>
    <defs></defs>
    <g id="Finished-Icon-Packs" stroke="none" stroke-width="1" fill="none" fill-rule="evenodd">
        <g id="Lock" fill="#5CD4C0">
            <g id="lock" transform="translate(7.000000, 2.000000)">
                <g id="Layer_1">
                    <g id="Group">
                        <path d="M30.6363636,45.9090909 L5.54545455,45.9090909 C2.49090909,45.9090909 0.0909090909,43.5090909 0.0909090909,40.4545455 L0.0909090909,21.4727273 C0.0909090909,19.7272727 0.745454545,18.2 2.05454545,17.3272727 L2.05454545,16.2363636 C2.05454545,7.50909091 9.25454545,0.309090909 17.9818182,0.309090909 C26.7090909,0.309090909 33.9090909,7.50909091 33.9090909,16.2363636 L33.9090909,17.3272727 C35.2181818,18.4181818 35.8727273,19.9454545 35.8727273,21.4727273 L35.8727273,40.4545455 C36.0909091,43.5090909 33.4727273,45.9090909 30.6363636,45.9090909 L30.6363636,45.9090909 Z M17.9818182,2.27272727 C10.3454545,2.27272727 4.23636364,8.38181818 4.23636364,16.0181818 L4.23636364,17.5454545 L4.23636364,18.2 L3.58181818,18.6363636 C2.70909091,19.2909091 2.05454545,20.3818182 2.05454545,21.4727273 L2.05454545,40.4545455 C2.05454545,42.2 3.58181818,43.7272727 5.32727273,43.7272727 L30.2,43.7272727 C31.9454545,43.7272727 33.4727273,42.2 33.4727273,40.4545455 L33.4727273,21.4727273 C33.4727273,20.3818182 32.8181818,19.2909091 31.9454545,18.6363636 L31.7272727,18.2 L31.7272727,17.5454545 L31.7272727,16.0181818 C31.7272727,8.38181818 25.6181818,2.27272727 17.9818182,2.27272727 L17.9818182,2.27272727 Z M29.9818182,18.2 L6.2,18.2 L6.2,17.1090909 L6.2,16.0181818 C6.2,9.47272727 11.6545455,4.01818182 18.2,4.01818182 C24.7454545,4.01818182 30.2,9.47272727 30.2,16.0181818 L30.2,17.1090909 L29.9818182,18.2 L29.9818182,18.2 Z M8.16363636,16.0181818 L27.8,16.0181818 C27.8,10.5636364 23.4363636,6.2 17.9818182,6.2 C12.5272727,6.2 8.38181818,10.5636364 8.16363636,16.0181818 L8.16363636,16.0181818 Z" id="Shape"></path>
                        <rect id="Rectangle-path" x="0.0909090909" y="25.8363636" width="14.1818182" height="2.18181818"></rect>
                        <rect id="Rectangle-path" x="0.0909090909" y="29.7636364" width="18.1090909" height="2.18181818"></rect>
                        <rect id="Rectangle-path" x="1.18181818" y="33.9090909" width="14.1818182" height="2.18181818"></rect>
                    </g>
                </g>
            </g>
        </g>
    </g>
</svg>