<?xml version="1.0" encoding="UTF-8" standalone="no"?>
<svg width="173px" height="158px" viewBox="0 0 173 158" version="1.1" xmlns="http://www.w3.org/2000/svg" xmlns:xlink="http://www.w3.org/1999/xlink">
    <!-- Generator: Sketch 43.2 (39069) - http://www.bohemiancoding.com/sketch -->
    <title>Artboard</title>
    <desc>Created with Sketch.</desc>
    <defs></defs>
    <g id="Page-1" stroke="none" stroke-width="1" fill="none" fill-rule="evenodd">
        <g id="Artboard">
            <g id="illustration-archive">
                <g>
                    <path d="M7.6891533,58.6162326 L2.51996395,58.6162326 C1.13185986,58.6162326 0.0096148068,59.7251126 0.0096148068,61.0930022 L0.0096148068,155.334641 C0.0096148068,156.697424 1.13353476,157.811424 2.51996395,157.811424 L142.130574,157.811424 C143.51874,157.811424 144.640923,156.702519 144.640923,155.334641 L144.640923,61.0930022 C144.640923,59.7302322 143.516991,58.6162326 142.130574,58.6162326 L35.8474611,58.6162326 L35.8474611,54.7166999 C35.8474611,52.6620448 34.1733616,50.9857645 32.1082608,50.9857645 L11.4283536,50.9857645 C9.36625252,50.9857645 7.6891533,52.6562046 7.6891533,54.7166999 L7.6891533,58.6162326 L7.6891533,58.6162326 L7.6891533,58.6162326 Z" id="Fill-1" fill="#C9C9C9"></path>
                    <polygon id="Fill-3" fill="#FFFFFF" points="16.6519272 32.3155547 105.75576 23.0051777 117.790037 136.834135 28.6862665 146.144512"></polygon>
                    <polygon id="Stroke-4" stroke="#E1E1E1" stroke-width="0.5" points="16.651926 32.3154663 105.755733 23.0050857 117.790073 136.834026 28.6862654 146.144406"></polygon>
                    <path d="M46.3508674,130.042826 L101.661881,124.263424 C102.495331,124.176342 103.220787,124.517028 103.276284,125.041297 C103.331655,125.565592 102.693319,126.048781 101.859869,126.135863 L46.5488179,131.915265 C45.7153681,132.002347 44.9898992,131.661673 44.934465,131.137379 C44.8790433,130.61311 45.517405,130.129908 46.3508674,130.042826 L46.3508674,130.042826 L46.3508674,130.042826 L46.3508674,130.042826 Z" id="Fill-5" fill="#D8D8D8"></path>
                    <path d="M44.568237,113.190853 L99.879238,107.41145 C100.712688,107.324368 101.438144,107.665054 101.493641,108.189336 C101.549013,108.713618 100.910676,109.196807 100.077226,109.283889 L44.7662001,115.063291 C43.9327376,115.150373 43.2072813,114.8097 43.1518472,114.285418 C43.0964254,113.761136 43.7347871,113.277947 44.568237,113.190853 L44.568237,113.190853 L44.568237,113.190853 L44.568237,113.190853 Z" id="Fill-6" fill="#D8D8D8"></path>
                    <path d="M42.7856191,96.3388789 L98.0967201,90.5594766 C98.930045,90.4723945 99.6556265,90.8130808 99.7109981,91.3373626 C99.7664948,91.8616445 99.1280332,92.3448332 98.2945833,92.4319154 L42.9835822,98.2113176 C42.1501198,98.2983998 41.4246635,97.9577258 41.3692293,97.433444 C41.3138076,96.9091621 41.9521693,96.4259734 42.7856191,96.3388789 L42.7856191,96.3388789 L42.7856191,96.3388789 L42.7856191,96.3388789 Z" id="Fill-7" fill="#D8D8D8"></path>
                    <path d="M41.0030013,79.4869052 L96.3140773,73.7075029 C97.1475272,73.6204209 97.8729836,73.9611072 97.9283553,74.4853891 C97.983852,75.0096709 97.3453904,75.4928597 96.5119403,75.5799417 L41.2009643,81.3593439 C40.3675019,81.4464261 39.642033,81.1057522 39.5866114,80.5814703 C39.5311773,80.0571884 40.1695388,79.5739997 41.0030013,79.4869052 L41.0030013,79.4869052 L41.0030013,79.4869052 L41.0030013,79.4869052 Z" id="Fill-8" fill="#D8D8D8"></path>
                    <path d="M39.2203834,62.6349316 L94.5314345,56.8554796 C95.3648843,56.7684969 96.0903408,57.1090963 96.1457124,57.6334776 C96.2012091,58.1577345 95.5628724,58.640886 94.7294225,58.7279805 L39.4183465,64.5073704 C38.584884,64.5944648 37.8594152,64.2537786 37.8039936,63.7294968 C37.7485594,63.2052149 38.386921,62.7220262 39.2203834,62.6349316 L39.2203834,62.6349316 L39.2203834,62.6349316 L39.2203834,62.6349316 Z" id="Fill-9" fill="#D8D8D8"></path>
                    <path d="M37.4377655,45.7829579 L92.7487915,40.0035806 C93.5822415,39.9164735 94.3076978,40.2571971 94.3631945,40.7814541 C94.4185661,41.3057112 93.7802295,41.7889621 92.9467797,41.8759447 L37.6357162,47.6554464 C36.8022662,47.7424291 36.0767973,47.4018298 36.0213757,46.8775727 C35.9659415,46.3531914 36.6043031,45.8700648 37.4377655,45.7829579 L37.4377655,45.7829579 L37.4377655,45.7829579 L37.4377655,45.7829579 Z" id="Fill-10" fill="#D8D8D8"></path>
                    <path d="M32.7674212,52.3269131 L25.190564,53.1185797 C24.3571142,53.2056866 23.6039344,52.6027725 23.5168271,51.7789222 L22.7249872,44.2892169 C22.6378925,43.4652424 23.2485433,42.7199252 24.0819931,42.6328182 L31.6588502,41.8411516 C32.4923003,41.7540447 33.2454799,42.3569588 33.3325872,43.1808091 L34.1244271,50.6705144 C34.2115344,51.4944889 33.6008836,52.2398061 32.7674212,52.3269131 L32.7674212,52.3269131 L32.7674212,52.3269131 L32.7674212,52.3269131 Z M24.2403586,44.1307841 L24.2403586,44.1307841 L25.0321986,51.6206138 L32.6090557,50.8289472 L31.8172159,43.3391175 L24.2403586,44.1307841 L24.2403586,44.1307841 L24.2403586,44.1307841 L24.2403586,44.1307841 Z" id="Fill-11" fill="#D8D8D8"></path>
                    <path d="M34.550039,69.1788246 L26.9731945,69.9705285 C26.139732,70.0576105 25.3865522,69.4547833 25.2994449,68.6309082 L24.5076051,61.1411533 C24.4205104,60.3172782 25.0311611,59.5719362 25.864611,59.484854 L33.4414681,58.6931502 C34.2749181,58.606068 35.0280978,59.2088953 35.1152051,60.0327703 L35.9070449,67.5225378 C35.9941522,68.3464004 35.3835015,69.0917425 34.550039,69.1788246 L34.550039,69.1788246 L34.550039,69.1788246 L34.550039,69.1788246 Z M26.0229764,60.9828075 L26.0229764,60.9828075 L26.8148164,68.4725749 L34.3916736,67.6808711 L33.5998337,60.1911161 L26.0229764,60.9828075 L26.0229764,60.9828075 L26.0229764,60.9828075 L26.0229764,60.9828075 Z" id="Fill-12" fill="#D8D8D8"></path>
                    <path d="M36.3326569,86.0307982 L28.7558123,86.822502 C27.9223499,86.9095842 27.1691701,86.306757 27.0820754,85.4828944 L26.2902355,77.9931144 C26.2031282,77.1692394 26.813779,76.4239097 27.6472289,76.3368277 L35.224086,75.5451239 C36.057536,75.4580417 36.8107282,76.0608689 36.897823,76.884744 L37.689663,84.3745115 C37.7767701,85.1983865 37.1661193,85.9437162 36.3326569,86.0307982 L36.3326569,86.0307982 L36.3326569,86.0307982 L36.3326569,86.0307982 Z M27.8055943,77.8347812 L27.8055943,77.8347812 L28.5974467,85.3245486 L36.1742914,84.5328447 L35.3824516,77.0430773 L27.8055943,77.8347812 L27.8055943,77.8347812 L27.8055943,77.8347812 L27.8055943,77.8347812 Z" id="Fill-13" fill="#D8D8D8"></path>
                    <path d="M38.1152873,102.882772 L30.5384302,103.674476 C29.7049802,103.761558 28.951788,103.158731 28.8646932,102.334868 L28.0728534,94.8450881 C27.9857461,94.0212131 28.5963969,93.2758834 29.4298467,93.1888013 L37.0067039,92.3970974 C37.8401663,92.3100154 38.5933461,92.9128426 38.6804408,93.7367177 L39.4722808,101.226485 C39.559388,102.050348 38.9487372,102.79569 38.1152873,102.882772 L38.1152873,102.882772 L38.1152873,102.882772 L38.1152873,102.882772 Z M29.5882247,94.6867548 L29.5882247,94.6867548 L30.3800646,102.176522 L37.9569093,101.384818 L37.1650695,93.895051 L29.5882247,94.6867548 L29.5882247,94.6867548 L29.5882247,94.6867548 L29.5882247,94.6867548 Z" id="Fill-14" fill="#D8D8D8"></path>
                    <path d="M39.8979052,119.734746 L32.3210481,120.526449 C31.4875981,120.613531 30.7344184,120.010704 30.6473111,119.186829 L29.8554713,111.697062 C29.768364,110.873187 30.3790147,110.127857 31.2124772,110.040775 L38.7893219,109.249071 C39.6227841,109.161989 40.375964,109.764816 40.4630713,110.588691 L41.2549111,118.078446 C41.3420058,118.902321 40.7313551,119.647663 39.8979052,119.734746 L39.8979052,119.734746 L39.8979052,119.734746 L39.8979052,119.734746 Z M31.3708426,111.538729 L31.3708426,111.538729 L32.1626825,119.028483 L39.7395397,118.236792 L38.9476997,110.747025 L31.3708426,111.538729 L31.3708426,111.538729 L31.3708426,111.538729 L31.3708426,111.538729 Z" id="Fill-15" fill="#D8D8D8"></path>
                    <path d="M41.6805231,136.586719 L34.1036659,137.378423 C33.2702159,137.465505 32.5170363,136.862678 32.429929,136.038803 L31.6380891,128.549035 C31.5509818,127.72516 32.1616326,126.979831 32.995095,126.892749 L40.5719521,126.101045 C41.405402,126.013963 42.1585818,126.61679 42.2456891,127.440665 L43.037529,134.93042 C43.1246237,135.754295 42.5139729,136.499637 41.6805231,136.586719 L41.6805231,136.586719 L41.6805231,136.586719 L41.6805231,136.586719 Z M33.1534605,128.390702 L33.1534605,128.390702 L33.9453003,135.880457 L41.5221576,135.088766 L40.7303176,127.598998 L33.1534605,128.390702 L33.1534605,128.390702 L33.1534605,128.390702 L33.1534605,128.390702 Z" id="Fill-16" fill="#D8D8D8"></path>
                    <path d="M29.2564197,49.551296 C29.0647562,49.9120255 28.6101335,49.9596174 28.2335436,49.6581603 L28.1080138,49.5577574 C27.7432981,49.3686323 27.6957884,48.9193046 28.0011201,48.5466459 L33.527488,41.0402897 C33.719164,40.6795602 34.1737742,40.6319682 34.5503641,40.9334253 L34.675894,41.0339524 C35.0406096,41.2229533 35.0881192,41.672281 34.7827876,42.0450639 L29.2564197,49.551296 L29.2564197,49.551296 L29.2564197,49.551296 L29.2564197,49.551296 Z" id="Fill-17" fill="#979797"></path>
                    <path d="M25.5448927,45.9632605 L29.25142,48.415675 C29.6161356,48.6048001 29.6636452,49.0541278 29.4719692,49.4149816 L29.3702004,49.5391183 C29.1785244,49.8999721 28.7239142,49.9474398 28.3591987,49.7584389 L24.6526714,47.3060246 C24.2879557,47.1168993 24.2404461,46.6675718 24.4321222,46.306718 L24.533891,46.1824569 C24.725567,45.8217274 25.1683028,45.6619277 25.5448927,45.9632605 L25.5448927,45.9632605 L25.5448927,45.9632605 L25.5448927,45.9632605 Z" id="Fill-18" fill="#979797"></path>
                    <path d="M31.0390376,66.4032695 C30.8473741,66.7640613 30.392764,66.8115662 30.0161741,66.5101464 L29.890644,66.4096815 C29.5259285,66.220606 29.4784188,65.7712287 29.783738,65.3985575 L35.3101059,57.8923132 C35.5017818,57.5314592 35.9563921,57.4839915 36.332982,57.7854487 L36.4585119,57.8858516 C36.8232275,58.0749767 36.870737,58.5243167 36.5654179,58.8969754 L31.0390376,66.4032695 L31.0390376,66.4032695 L31.0390376,66.4032695 L31.0390376,66.4032695 Z" id="Fill-19" fill="#979797"></path>
                    <path d="M27.3275106,62.8152591 L31.0340378,65.267661 C31.3987535,65.4567241 31.446263,65.9061138 31.2545871,66.2669055 L31.1528182,66.3911293 C30.9611423,66.7519209 30.506532,66.7994135 30.1418165,66.6103504 L26.4352893,64.1579485 C26.0705736,63.9688854 26.0230639,63.5194957 26.21474,63.1587164 L26.3165214,63.0344928 C26.5081848,62.673701 26.9509207,62.5138518 27.3275106,62.8152591 L27.3275106,62.8152591 L27.3275106,62.8152591 L27.3275106,62.8152591 Z" id="Fill-20" fill="#979797"></path>
                    <path d="M32.8216679,83.2552432 C32.6299919,83.616035 32.1753818,83.6635399 31.7987919,83.36212 L31.6732619,83.2616551 C31.3085464,83.0725795 31.2610367,82.6232022 31.5663559,82.2505312 L37.0927237,74.7442371 C37.2843997,74.3834578 37.7390099,74.3359528 38.1155999,74.6373602 L38.2411297,74.7378376 C38.6058454,74.9269007 38.6533549,75.3762904 38.3480359,75.7489614 L32.8216679,83.2552432 L32.8216679,83.2552432 L32.8216679,83.2552432 L32.8216679,83.2552432 Z" id="Fill-21" fill="#979797"></path>
                    <path d="M29.1101284,79.6672328 L32.8166557,82.1196347 C33.1813714,82.3086977 33.2288809,82.7580875 33.0372049,83.1188792 L32.9354361,83.243103 C32.7437601,83.6038946 32.2891499,83.6513872 31.9244344,83.4623241 L28.2179071,81.0099222 C27.853204,80.8208591 27.8056819,80.3714694 27.9973579,80.0106901 L28.0991393,79.8864663 C28.2908153,79.5256746 28.7335385,79.3658253 29.1101284,79.6672328 L29.1101284,79.6672328 L29.1101284,79.6672328 L29.1101284,79.6672328 Z" id="Fill-22" fill="#979797"></path>
                    <path d="M34.6042858,100.107217 C34.4126098,100.468009 33.9579997,100.515513 33.5814098,100.214094 L33.4558798,100.113629 C33.0911643,99.9245532 33.0436546,99.4751759 33.3489738,99.1025049 L38.8753542,91.5962107 C39.0670176,91.2354315 39.5216402,91.1879264 39.8982301,91.4893339 L40.0237601,91.5898113 C40.3884633,91.7788742 40.4359853,92.2282641 40.1306538,92.6009351 L34.6042858,100.107217 L34.6042858,100.107217 L34.6042858,100.107217 L34.6042858,100.107217 Z" id="Fill-23" fill="#979797"></path>
                    <path d="M30.8927589,96.5192063 L34.5992736,98.9716083 C34.9639892,99.1606714 35.0114988,99.6100612 34.8198354,99.9708529 L34.718054,100.095077 C34.526378,100.455868 34.0717678,100.503361 33.7070523,100.314298 L30.0005374,97.8618959 C29.6358219,97.6728328 29.5883122,97.2234429 29.7799758,96.8626638 L29.8817572,96.73844 C30.0734331,96.3776483 30.516169,96.217799 30.8927589,96.5192063 L30.8927589,96.5192063 L30.8927589,96.5192063 L30.8927589,96.5192063 Z" id="Fill-24" fill="#979797"></path>
                    <path d="M36.3869036,116.959178 C36.1952277,117.319982 35.7406176,117.367487 35.3640277,117.066067 L35.2384976,116.965602 C34.8737821,116.776527 34.8262724,116.327137 35.131604,115.954479 L40.657972,108.448184 C40.849648,108.087405 41.3042581,108.0399 41.680848,108.341307 L41.806378,108.441785 C42.1710935,108.630848 42.2186032,109.080225 41.9132716,109.452896 L36.3869036,116.959178 L36.3869036,116.959178 L36.3869036,116.959178 L36.3869036,116.959178 Z" id="Fill-25" fill="#979797"></path>
                    <path d="M32.6753767,113.37118 L36.381904,115.823582 C36.7466071,116.012645 36.7941292,116.462035 36.6024532,116.822827 L36.5006719,116.94705 C36.3089959,117.307842 35.8543856,117.355334 35.4896825,117.166271 L31.7831553,114.713869 C31.4184398,114.524806 31.3709301,114.075417 31.5626061,113.714637 L31.664375,113.590414 C31.856051,113.229622 32.2987868,113.069773 32.6753767,113.37118 L32.6753767,113.37118 L32.6753767,113.37118 L32.6753767,113.37118 Z" id="Fill-26" fill="#979797"></path>
                    <path d="M38.1695215,133.811152 C37.9778455,134.171956 37.5232354,134.219461 37.1466455,133.918041 L37.0211155,133.817576 C36.6564,133.628501 36.6088903,133.179111 36.9142221,132.806452 L42.4405899,125.300158 C42.6322659,124.939379 43.086876,124.891874 43.4634659,125.193281 L43.5889959,125.293759 C43.9537114,125.482822 44.0012211,125.932211 43.6959019,126.30487 L38.1695215,133.811152 L38.1695215,133.811152 L38.1695215,133.811152 L38.1695215,133.811152 Z" id="Fill-27" fill="#979797"></path>
                    <path d="M34.4579946,130.223154 L38.1645219,132.675556 C38.5292374,132.864619 38.5767471,133.314008 38.3850711,133.6748 L38.2832897,133.799011 C38.0916262,134.159816 37.6370161,134.207308 37.2723004,134.018245 L33.5657732,131.565843 C33.2010576,131.37678 33.153548,130.92739 33.3452239,130.566611 L33.4469929,130.442375 C33.6386689,130.081596 34.0814047,129.921746 34.4579946,130.223154 L34.4579946,130.223154 L34.4579946,130.223154 L34.4579946,130.223154 Z" id="Fill-28" fill="#979797"></path>
                    <polygon id="Fill-29" fill="#FFFFFF" points="49.7561002 0.862619608 138.859895 10.1729966 126.825619 124.001979 37.7217609 114.691602"></polygon>
                    <polygon id="Stroke-30" stroke="#E6E6E6" stroke-width="0.5" points="49.7561015 0.862639267 138.859909 10.1730198 126.825564 124.002012 37.7217566 114.691631"></polygon>
                    <path d="M136.386794,12.1148226 C137.20912,12.200687 137.811583,12.9363119 137.725589,13.7494756 L126.21328,122.640538 C126.127411,123.453702 125.384205,124.048726 124.56188,123.962799 L40.533392,115.182743 C39.7110413,115.096817 39.1085651,114.361192 39.1945349,113.548028 L50.7068181,4.65692813 C50.7927879,3.84376439 51.5359557,3.24880289 52.3582938,3.33466721 L136.386794,12.1148226 L136.386794,12.1148226 L136.386794,12.1148226 L136.386794,12.1148226 Z" id="Fill-31" fill="#FFFFFF"></path>
                    <polygon id="Fill-32" fill="#EDF0F2" points="61.4866702 12.4352917 122.526877 18.8133584 121.718051 26.4646029 60.6777189 20.0865363"></polygon>
                    <polygon id="Fill-33" fill="#EDF0F2" points="56.508157 59.5253506 117.548426 65.9033801 116.739475 73.5545874 55.6992431 67.1765455"></polygon>
                    <polygon id="Fill-34" fill="#EDF0F2" points="55.410073 69.9117655 116.450367 76.2898074 115.285812 87.3045849 54.2455554 80.926543"></polygon>
                    <polygon id="Fill-35" fill="#EDF0F2" points="58.7648338 35.3206818 119.805041 41.6987486 117.640171 62.1759115 56.5999015 55.7978945"></polygon>
                    <polygon id="Fill-36" fill="#EDF0F2" points="60.3533634 23.1544151 121.393695 29.5324819 121.06934 32.6003609 60.0290079 26.2222941"></polygon>
                    <polygon id="Fill-37" fill="#EDF0F2" points="59.646031 29.8446255 91.1567622 33.1371681 90.8324067 36.2049228 59.3218004 32.9125044"></polygon>
                    <polygon id="Fill-38" fill="#EDF0F2" points="53.8274306 84.8815086 76.7408785 87.2757191 76.4165231 90.3435856 53.503075 87.9493876"></polygon>
                    <polygon id="Fill-39" fill="#EDF0F2" points="52.2096028 100.183923 86.5985361 103.777177 86.2741806 106.845056 51.8852598 103.25179"></polygon>
                    <path d="M56.140704,98.3898061 C55.8416721,98.3585669 55.7647016,98.0141776 55.7390532,97.8993854 C55.518179,97.1288929 55.5784878,96.2009368 55.8000495,95.1776975 C55.3598135,95.767005 54.7918227,96.4924406 54.0921522,97.3909716 L53.4997002,96.9179846 C55.2901552,94.6386037 56.1784268,93.386078 56.573453,92.8668038 C56.8407119,92.4836452 57.0175764,92.2405286 57.3383695,92.4235278 C57.6591504,92.6065394 57.5157839,92.8905129 57.4175397,93.1044779 C57.1229201,93.7463603 56.87351,94.318234 56.6988455,94.8979114 C56.838337,94.6508932 56.9739164,94.4408299 57.1764419,94.3125181 C57.4615496,94.1180745 57.6780242,94.2154455 57.7448951,94.2971719 C58.0245033,94.5132369 57.9892555,94.8458959 57.8481389,95.4664427 C57.8285151,95.651256 57.7560194,95.9800008 57.7286461,96.2387493 L58.314486,95.702029 L58.5604712,95.8772245 C58.9108251,96.1380483 58.8600781,96.6185654 58.8248302,96.951212 C58.8092061,97.0990702 58.7858325,97.3208511 58.8153308,97.3986758 C59.0200685,97.6069247 59.5590361,97.5137539 59.9071402,97.4380167 C60.060631,97.4166687 60.2296208,97.2474875 60.3987357,97.0782937 C60.5226032,96.9791211 60.609098,96.8760467 60.7329655,96.7768863 L61.1975626,97.3860012 C61.1150677,97.4521205 61.0285729,97.5551949 60.90858,97.6174 C60.6982177,97.8196346 60.4053603,98.088001 60.0572562,98.1637256 C59.476916,98.2899624 58.7472099,98.4005671 58.2708636,97.9023428 C57.995255,97.6493225 58.0382526,97.2427407 58.0733754,96.9100693 L57.5701557,97.3806703 L57.3240954,97.2054872 C57.1115457,97.0711612 57.022851,96.8376749 57.0128266,96.5750245 C56.873335,96.8220427 56.8125136,97.039922 56.7929773,97.2247352 C56.6283372,98.0670507 56.5557916,98.3958078 56.1780893,98.3937203 L56.140704,98.3898061 L56.140704,98.3898061 L56.140704,98.3898061 L56.140704,98.3898061 Z" id="Fill-40" fill="#DADADA"></path>
                    <path d="M10.8570129,77.6226925 C11.047414,76.2563811 12.311488,75.1487561 13.7010045,75.1487561 L157.17367,75.1487561 C158.553836,75.1487561 159.467406,76.2547905 159.217296,77.600251 L144.76929,155.359917 C144.51768,156.71384 143.19151,157.811424 141.803469,157.811424 L2.1928086,157.811424 C0.806379424,157.811424 -0.163412295,156.70539 0.0272137492,155.337487 L10.8570129,77.6226925 L10.8570129,77.6226925 L10.8570129,77.6226925 Z" id="Fill-41" fill-opacity="0.9944" fill="#DBDBDB"></path>
                </g>
            </g>
            <path d="M165.9884,90.9884 C174.6764,82.2974 174.6764,68.207 165.9884,59.516 C157.2974,50.828 143.207,50.828 134.516,59.516 C125.828,68.207 125.828,82.2974 134.516,90.9884 C143.207,99.6764 157.2974,99.6764 165.9884,90.9884 L165.9884,90.9884 Z" id="Page-1-Copy" fill="#F3672F"></path>
            <path d="M152.37697,75.000047 L159.507705,67.8693035 C160.164098,67.21291 160.164098,66.1486886 159.507705,65.492389 C158.851313,64.8359955 157.787186,64.8359955 157.130794,65.492389 L149.999965,72.6232264 L142.869136,65.4922951 C142.212743,64.8359016 141.148617,64.8359016 140.492224,65.4922951 C139.835925,66.1486886 139.835925,67.21291 140.492224,67.8692096 L147.623053,74.999953 L140.492224,82.1307904 C139.835925,82.7871839 139.835925,83.8514053 140.492224,84.5077049 C141.148617,85.1640984 142.212743,85.1640984 142.869136,84.5077049 L149.999965,77.3768675 L157.130794,84.5077049 C157.787093,85.1640984 158.851313,85.1640984 159.507705,84.5077049 C160.164098,83.8513114 160.164098,82.7871839 159.507705,82.1307904 L152.37697,75.000047 L152.37697,75.000047 Z" id="auvicon-ex-copy" fill="#FFFFFF"></path>
        </g>
    </g>
</svg>