<?xml version="1.0" encoding="UTF-8" standalone="no"?>
<svg width="160px" height="122px" viewBox="0 0 160 122" version="1.1" xmlns="http://www.w3.org/2000/svg" xmlns:xlink="http://www.w3.org/1999/xlink">
    <!-- Generator: Sketch 40.1 (33804) - http://www.bohemiancoding.com/sketch -->
    <title>illustration-requests</title>
    <desc>Created with Sketch.</desc>
    <defs>
        <linearGradient x1="44.3009339%" y1="0.994985673%" x2="55.478624%" y2="97.0205587%" id="linearGradient-1">
            <stop stop-color="#476C8C" offset="0%"></stop>
            <stop stop-color="#60A8A4" offset="100%"></stop>
        </linearGradient>
    </defs>
    <g id="Page-1" stroke="none" stroke-width="1" fill="none" fill-rule="evenodd">
        <g id="Illustration" transform="translate(-527.000000, -42.000000)">
            <g id="illustration-requests" transform="translate(527.000000, 42.000000)">
                <g>
                    <g id="desktop">
                        <g id="Layer_1">
                            <g id="Group">
                                <path d="M9.49270073,1.10900474 L143.45146,1.10900474 C148.086131,1.10900474 151.827372,4.82417062 151.827372,9.42654026 L151.827372,89.6630331 C151.827372,94.2654026 148.086131,97.9805685 143.45146,97.9805685 L9.49270073,97.9805685 C4.8580292,97.9805685 1.11678832,94.2654026 1.11678832,89.6630331 L1.11678832,9.42654026 C1.11678832,4.82417062 4.8580292,1.10900474 9.49270073,1.10900474 L9.49270073,1.10900474 L9.49270073,1.10900474 L9.49270073,1.10900474 Z" id="Shape" fill="#FFFFFF"></path>
                                <path d="M143.45146,98.8123221 L9.49270073,98.8123221 C4.41131387,98.8123221 0.27919708,94.7090048 0.27919708,89.6630331 L0.27919708,9.42654026 C0.27919708,4.38056872 4.41131387,0.277251185 9.49270073,0.277251185 L143.45146,0.277251185 C148.532847,0.277251185 152.664964,4.38056872 152.664964,9.42654026 L152.664964,89.6630331 C152.664964,94.7090048 148.532847,98.8123221 143.45146,98.8123221 L143.45146,98.8123221 L143.45146,98.8123221 L143.45146,98.8123221 Z M9.49270073,1.94075829 C5.36058394,1.94075829 1.95437956,5.32322275 1.95437956,9.42654026 L1.95437956,89.6630331 C1.95437956,93.766351 5.36058394,97.1488149 9.49270073,97.1488149 L143.45146,97.1488149 C147.583577,97.1488149 150.989781,93.766351 150.989781,89.6630331 L150.989781,9.42654026 C150.989781,5.32322275 147.583577,1.94075829 143.45146,1.94075829 L9.49270073,1.94075829 L9.49270073,1.94075829 L9.49270073,1.94075829 L9.49270073,1.94075829 Z" id="Shape" fill="#E9E6E6"></path>
                                <polyline id="Shape" fill="#FFFFFF" points="63.0427009 105.1891 65.6113137 97.9805685 89.5105842 97.9805685 91.4649635 105.1891"></polyline>
                                <polygon id="Shape" fill="#E9E6E6" points="63.8244523 105.466351 62.2609489 104.911849 64.9970802 97.1488149 90.1248176 97.1488149 92.2467155 104.967299 90.627372 105.4109 88.8405112 98.8123221 66.1697082 98.8123221"></polygon>
                                <path d="M63.0427009,105.1891 L91.409124,105.1891 L97.3281021,113.672986 C98.2215331,114.948341 97.6631386,115.946445 96.0996353,115.946445 L57.849635,115.946445 C56.2861314,115.946445 55.7835767,114.948341 56.7328467,113.728436 L63.0427009,105.1891 L63.0427009,105.1891 L63.0427009,105.1891 L63.0427009,105.1891 Z" id="Shape" fill="#FFFFFF"></path>
                                <path d="M96.0996353,116.778199 L57.849635,116.778199 C56.3978102,116.778199 55.839416,116.057346 55.6160584,115.669194 C55.3927007,115.281043 55.169343,114.393839 56.0627737,113.229384 L62.6518249,104.301896 L91.911679,104.301896 L97.9981751,113.173934 C98.6124085,114.061138 98.7240875,114.948341 98.3332115,115.669194 C97.9981751,116.390047 97.1605842,116.778199 96.0996353,116.778199 L96.0996353,116.778199 L96.0996353,116.778199 L96.0996353,116.778199 Z M63.4894158,106.020853 L57.4029197,114.227488 C57.0678832,114.67109 57.0678832,114.892891 57.1237226,114.948341 C57.1237226,115.003791 57.3470803,115.170142 57.849635,115.170142 L96.0996353,115.170142 C96.5463502,115.170142 96.8255477,115.059242 96.8813866,114.948341 C96.9372261,114.837441 96.8813866,114.560189 96.6580292,114.172038 L91.0740875,106.020853 L63.4894158,106.020853 L63.4894158,106.020853 L63.4894158,106.020853 L63.4894158,106.020853 Z" id="Shape" fill="#E9E6E6"></path>
                                <rect id="Rectangle-path" fill="url(#linearGradient-1)" x="9.88357666" y="10.8682465" width="134.237956" height="77.4085306"></rect>
                                <path d="M144.959124,89.1085306 L9.04598541,89.1085306 L9.04598541,10.0364929 L144.959124,10.0364929 L144.959124,89.1085306 L144.959124,89.1085306 L144.959124,89.1085306 L144.959124,89.1085306 Z M10.7211679,87.4450234 L143.283942,87.4450234 L143.283942,11.7 L10.7211679,11.7 L10.7211679,87.4450234 L10.7211679,87.4450234 L10.7211679,87.4450234 L10.7211679,87.4450234 Z" id="Shape" fill="#E9E6E6"></path>
                                <polygon id="Shape" fill="#F5F5F5" points="10.4978102 17.8549763 143.228102 17.8549763 143.395621 87.6113744 10.6094891 87.6113744"></polygon>
                                <rect id="Rectangle-path" fill="#FFFFFF" x="23.7729084" y="32.1295337" width="20.1475732" height="35.8763033"></rect>
                                <rect id="Rectangle-path" fill="#FFFFFF" x="46.936255" y="32.1295337" width="81.6812749" height="55.4818407"></rect>
                                <rect id="Rectangle-path-Copy-4" fill="#FFFFFF" x="10.3625498" y="17.5803109" width="132.884462" height="7.20853083"></rect>
                            </g>
                        </g>
                    </g>
                    <rect id="Rectangle-815-Copy" fill="#F5F5F5" x="51.2031873" y="42.4352332" width="15.2390438" height="1.21243523"></rect>
                    <rect id="Rectangle-815-Copy-2" fill="#F5F5F5" x="51.2031873" y="49.1036269" width="15.2390438" height="1.21243523"></rect>
                    <rect id="Rectangle-815-Copy-3" fill="#F5F5F5" x="51.2031873" y="55.1658031" width="15.2390438" height="1.21243523"></rect>
                    <rect id="Rectangle-815-Copy-6" fill="#F5F5F5" x="51.2031873" y="67.2901554" width="15.2390438" height="1.21243523"></rect>
                    <rect id="Rectangle-815-Copy-7" fill="#F5F5F5" x="51.2031873" y="73.3523316" width="15.2390438" height="1.21243523"></rect>
                    <rect id="Rectangle-815-Copy-8" fill="#F5F5F5" x="51.2031873" y="79.4145078" width="15.2390438" height="1.21243523"></rect>
                    <rect id="Rectangle-815-Copy-9" fill="#F5F5F5" x="51.2031873" y="84.8704663" width="15.2390438" height="1.21243523"></rect>
                    <rect id="Rectangle-815" fill="#F5F5F5" x="26.2111554" y="36.9792746" width="15.2390438" height="1.21243523"></rect>
                    <rect id="Rectangle-815-Copy-5" fill="#F5F5F5" x="26.2111554" y="34.5544041" width="15.2390438" height="3.6373057"></rect>
                    <rect id="Rectangle-815-Copy-10" fill="#F5F5F5" x="51.2031873" y="34.5544041" width="15.2390438" height="3.6373057"></rect>
                    <rect id="Rectangle-815-Copy-11" fill="#F5F5F5" x="13.4103586" y="19.3989637" width="15.2390438" height="3.6373057"></rect>
                    <rect id="Rectangle-815-Copy" fill="#F5F5F5" x="26.2111554" y="43.0414508" width="15.2390438" height="1.21243523"></rect>
                    <rect id="Rectangle-815-Copy-3" fill="#F5F5F5" x="26.2111554" y="49.7098446" width="15.2390438" height="1.21243523"></rect>
                    <rect id="Rectangle-815-Copy-6" fill="#F5F5F5" x="26.2111554" y="56.3782383" width="15.2390438" height="1.21243523"></rect>
                    <rect id="Rectangle-815-Copy-8" fill="#F5F5F5" x="26.2111554" y="63.0466321" width="15.2390438" height="1.21243523"></rect>
                    <ellipse id="Oval-268" fill="#FFFFFF" cx="110.330677" cy="36.9792746" rx="1.21912351" ry="1.21243523"></ellipse>
                    <rect id="Rectangle-834-Copy" fill="#56D5C0" x="106.063745" y="41.2227979" width="6.09561753" height="3.6373057" rx="1.81865285"></rect>
                    <ellipse id="Oval-268-Copy" fill="#FFFFFF" cx="110.330677" cy="43.0414508" rx="1.21912351" ry="1.21243523"></ellipse>
                    <rect id="Rectangle-834-Copy-2" fill="#56D5C0" x="106.063745" y="47.2849741" width="6.09561753" height="3.6373057" rx="1.81865285"></rect>
                    <ellipse id="Oval-268-Copy-2" fill="#FFFFFF" cx="110.330677" cy="49.1036269" rx="1.21912351" ry="1.21243523"></ellipse>
                    <rect id="Rectangle-834-Copy-3" fill="#56D5C0" x="106.063745" y="53.3471503" width="6.09561753" height="3.6373057" rx="1.81865285"></rect>
                    <ellipse id="Oval-268-Copy-3" fill="#FFFFFF" cx="110.330677" cy="55.1658031" rx="1.21912351" ry="1.21243523"></ellipse>
                    <g id="Group-23" transform="translate(106.063745, 65.471503)">
                        <rect id="Rectangle-834-Copy-5" fill="#9B9B9B" x="0" y="0" width="6.09561753" height="3.6373057" rx="1.81865285"></rect>
                        <ellipse id="Oval-268-Copy-5" fill="#FFFFFF" cx="1.82868526" cy="1.81865285" rx="1.21912351" ry="1.21243523"></ellipse>
                    </g>
                    <g id="Group-23-Copy" transform="translate(106.063745, 71.533679)">
                        <rect id="Rectangle-834-Copy-5" fill="#9B9B9B" x="0" y="0" width="6.09561753" height="3.6373057" rx="1.81865285"></rect>
                        <ellipse id="Oval-268-Copy-5" fill="#FFFFFF" cx="1.82868526" cy="1.81865285" rx="1.21912351" ry="1.21243523"></ellipse>
                    </g>
                    <g id="Group-23-Copy-2" transform="translate(106.063745, 77.595855)">
                        <rect id="Rectangle-834-Copy-5" fill="#9B9B9B" x="0" y="0" width="6.09561753" height="3.6373057" rx="1.81865285"></rect>
                        <ellipse id="Oval-268-Copy-5" fill="#FFFFFF" cx="1.82868526" cy="1.81865285" rx="1.21912351" ry="1.21243523"></ellipse>
                    </g>
                    <g id="Group-23-Copy-3" transform="translate(106.063745, 83.658031)">
                        <rect id="Rectangle-834-Copy-5" fill="#9B9B9B" x="0" y="0" width="6.09561753" height="3.6373057" rx="1.81865285"></rect>
                        <ellipse id="Oval-268-Copy-5" fill="#FFFFFF" cx="1.82868526" cy="1.81865285" rx="1.21912351" ry="1.21243523"></ellipse>
                    </g>
                    <path d="M49.0697211,40.1619171 L124.045817,40.1619171" id="Line" stroke="#F6F8F9" stroke-width="0.5"></path>
                    <path d="M49.0697211,46.2240933 L124.045817,46.2240933" id="Line-Copy-11" stroke="#F6F8F9" stroke-width="0.5"></path>
                    <path d="M49.0697211,52.2862694 L124.045817,52.2862694" id="Line-Copy-12" stroke="#F6F8F9" stroke-width="0.5"></path>
                    <path d="M49.0697211,58.3484456 L124.045817,58.3484456" id="Line-Copy-13" stroke="#F6F8F9" stroke-width="0.5"></path>
                    <path d="M49.0697211,64.4106218 L124.045817,64.4106218" id="Line-Copy-14" stroke="#F6F8F9" stroke-width="0.5"></path>
                    <path d="M49.0697211,70.4727979 L124.045817,70.4727979" id="Line-Copy-15" stroke="#F6F8F9" stroke-width="0.5"></path>
                    <path d="M49.0697211,76.5349741 L124.045817,76.5349741" id="Line-Copy-16" stroke="#F6F8F9" stroke-width="0.5"></path>
                    <path d="M49.0697211,82.5971503 L124.045817,82.5971503" id="Line-Copy-17" stroke="#F6F8F9" stroke-width="0.5"></path>
                    <rect id="Rectangle-843" fill="#FBFBFB" x="46.936255" y="58.1968912" width="81.6812749" height="6.66839378"></rect>
                    <rect id="Rectangle-815-Copy-4" fill="#E4E4E4" x="51.2031873" y="60.6217617" width="15.2390438" height="1.21243523"></rect>
                    <rect id="Rectangle-815-Copy-12" fill="#E4E4E4" x="81.6812749" y="60.6217617" width="9.14342629" height="1.21243523"></rect>
                    <rect id="Rectangle-815-Copy-13" fill="#F5F5F5" x="81.6812749" y="54.5595855" width="9.14342629" height="1.21243523"></rect>
                    <rect id="Rectangle-815-Copy-16" fill="#F5F5F5" x="81.6812749" y="54.5595855" width="9.14342629" height="1.21243523"></rect>
                    <rect id="Rectangle-815-Copy-17" fill="#F5F5F5" x="81.6812749" y="66.6839378" width="9.14342629" height="1.21243523"></rect>
                    <rect id="Rectangle-815-Copy-18" fill="#F5F5F5" x="81.6812749" y="72.746114" width="9.14342629" height="1.21243523"></rect>
                    <rect id="Rectangle-815-Copy-19" fill="#F5F5F5" x="81.6812749" y="78.8082902" width="9.14342629" height="1.21243523"></rect>
                    <rect id="Rectangle-815-Copy-20" fill="#F5F5F5" x="81.6812749" y="84.8704663" width="9.14342629" height="1.21243523"></rect>
                    <rect id="Rectangle-815-Copy-14" fill="#F5F5F5" x="81.6812749" y="48.4974093" width="9.14342629" height="1.21243523"></rect>
                    <rect id="Rectangle-815-Copy-15" fill="#F5F5F5" x="81.6812749" y="42.4352332" width="9.14342629" height="1.21243523"></rect>
                    <rect id="Rectangle-834-Copy-4" fill="#56D5C0" x="106.063745" y="59.4093264" width="6.09561753" height="3.6373057" rx="1.81865285"></rect>
                    <ellipse id="Oval-268-Copy-4" fill="#FFFFFF" cx="110.330677" cy="61.2279793" rx="1.21912351" ry="1.21243523"></ellipse>
                </g>
            </g>
        </g>
    </g>
</svg>