<?xml version="1.0" encoding="UTF-8" standalone="no"?>
<svg width="157px" height="137px" viewBox="0 0 157 137" version="1.1" xmlns="http://www.w3.org/2000/svg" xmlns:xlink="http://www.w3.org/1999/xlink">
    <!-- Generator: Sketch 40.1 (33804) - http://www.bohemiancoding.com/sketch -->
    <title>illustration-selectclient</title>
    <desc>Created with Sketch.</desc>
    <defs></defs>
    <g id="Page-1" stroke="none" stroke-width="1" fill="none" fill-rule="evenodd">
        <g id="Illustration" transform="translate(-180.000000, -196.000000)">
            <g id="illustration-selectclient" transform="translate(179.000000, 196.000000)">
                <g>
                    <g id="seo-marketing-business-identity-verified">
                        <g id="XMLID_2_">
                            <g id="flat-icon-445">
                                <g id="Group">
                                    <path d="M98.8229865,93.4111844 L9.86036257,93.4111844 C4.9451776,93.4111844 0.96410018,89.4301645 0.96410018,84.5150506 L0.96410018,26.6901807 C0.96410018,21.7750668 4.9451776,17.7940469 9.86036257,17.7940469 L98.8229865,17.7940469 C103.738171,17.7940469 107.719249,21.7750668 107.719249,26.6901807 L107.719249,84.5150506 C107.719249,89.4301645 103.738171,93.4111844 98.8229865,93.4111844 L98.8229865,93.4111844 Z" id="Shape" fill="#F6F6F6"></path>
                                    <ellipse id="Oval" fill="#B5B5B5" cx="32.1010186" cy="44.4824484" rx="8.8962624" ry="8.89613383"></ellipse>
                                    <path d="M49.8935434,71.1708498 L14.3084938,71.1708498 L14.3084938,60.7178926 C16.2256383,58.947562 19.2503675,57.3951866 23.1558267,56.4166119 C25.6556765,58.3070403 28.724887,59.4724339 32.0921223,59.4724339 C35.4593576,59.4724339 38.5330163,58.3070403 41.0284179,56.4210599 C44.9338771,57.3996347 47.9808469,58.95201 49.8935434,60.7223407 L49.8935434,71.1708498 L49.8935434,71.1708498 Z" id="Shape" fill="#B5B5B5"></path>
                                    <rect id="Rectangle-path" fill="#B5B5B5" x="63.2379369" y="44.4824484" width="31.1102296" height="8.89613383"></rect>
                                    <rect id="Rectangle-path" fill="#B5B5B5" x="63.2379369" y="62.274716" width="31.1102296" height="8.89613383"></rect>
                                    <g transform="translate(79.273837, 65.272937)" id="Shape" fill="#81E2D2">
                                        <path d="M17.048129,0 C8.1841396,0 0.998484438,7.18555132 0.998484438,16.0494126 C0.998484438,24.913274 8.1841396,32.0988253 17.048129,32.0988253 C25.9121185,32.0988253 33.0977736,24.913274 33.0977736,16.0494126 C33.0977736,7.18555132 25.9121185,0 17.048129,0 L17.048129,0 Z"></path>
                                    </g>
                                    <path d="M67.6504831,13.34598 C67.6504831,5.97998116 61.6766429,0.00177922677 54.3060895,0.00177922677 C46.9355361,0.00177922677 40.997281,5.97998116 40.997281,13.34598 L40.997281,26.6901807 L67.6504831,26.6901807 L67.6504831,13.34598 L67.6504831,13.34598 Z M54.3060895,17.8118391 C51.8418248,17.8118391 49.8446139,15.8146571 49.8446139,13.3548761 C49.8446139,10.8950951 51.8418248,8.89791305 54.3060895,8.89791305 C56.7703542,8.89791305 58.7675651,10.8950951 58.7675651,13.3548761 C58.7675651,15.8146571 56.7703542,17.8118391 54.3060895,17.8118391 L54.3060895,17.8118391 Z" id="Shape" fill="#F6F6F6"></path>
                                </g>
                            </g>
                        </g>
                    </g>
                    <path d="M101.574036,80.1333122 C101.938748,80.1333122 102.240254,80.2577187 102.480548,80.5068164 C102.719418,80.7559141 102.844121,81.0673574 102.854085,81.4411464 C102.854085,81.7858976 102.723974,82.0882311 102.466028,82.3472927 C102.206943,82.6063543 101.900882,82.7398707 101.546135,82.7498346 L97.7928239,82.7643535 L97.7783037,86.5176156 C97.7783037,86.8623668 97.6516085,87.1715327 97.3967945,87.4448285 C97.1431193,87.718409 96.8239611,87.8542028 96.4404589,87.8553415 C96.095677,87.8553415 95.7907543,87.7229639 95.527399,87.4593473 C95.263759,87.1960154 95.1370638,86.8677758 95.1458897,86.4740591 L95.1179883,82.7643535 L91.3655314,82.7788723 C91.039825,82.7597985 90.7371799,82.6308371 90.4604433,82.3908492 C90.1822832,82.1505767 90.0422067,81.8391334 90.0422067,81.4565193 C90.0422067,81.111768 90.1623536,80.8048796 90.4015087,80.5358541 C90.6406638,80.2679673 90.9475794,80.1287572 91.3222557,80.1187933 L95.1470286,80.1187933 L95.1470286,76.2946451 C95.1470286,75.9308201 95.2760015,75.6384505 95.5350861,75.4169671 C95.7941708,75.196907 96.0999476,75.0725005 96.4558331,75.0434628 C96.8774863,75.0434628 97.1989221,75.1724243 97.4190017,75.4314859 C97.639366,75.6905475 97.7592283,76.0019909 97.7783037,76.3658159 L97.7783037,80.1042745 L101.574036,80.1333122 Z" id="Add-Plus" fill="#FFFFFF"></path>
                </g>
            </g>
        </g>
    </g>
</svg>