<?xml version="1.0" encoding="utf-8"?>
<!-- Generator: Avocode 2.6.0 - http://avocode.com -->
<svg height="127" width="88" xmlns:xlink="http://www.w3.org/1999/xlink" xmlns="http://www.w3.org/2000/svg" viewBox="0 0 88 127">
    <path fill="#c1c1c1" fill-rule="evenodd" d="M 61.12 39.95 L 59.92 39.12 L 83.75 3.35 L 28.19 24.52 L 38.75 29.26 L 38.24 30.47 L 24.59 24.46 L 87.22 0.51 L 61.12 39.95 Z M 61.12 39.95" />
    <path fill="#c1c1c1" fill-rule="evenodd" d="M 43.74 44.88 L 37.86 30.15 L 39.19 29.58 L 44.18 42.35 L 49.74 36.09 L 44.43 34.26 L 44.88 32.99 L 52.14 35.52 L 43.74 44.88 Z M 43.74 44.88" />
    <path fill="#c1c1c1" fill-rule="evenodd" d="M 43.61 44.05 L 43.23 33.88 L 44.62 33.88 L 44.94 40.96 L 50.69 35.52 L 51.7 36.47 L 43.61 44.05 Z M 43.61 44.05" />
    <path fill="#c1c1c1" fill-rule="evenodd" d="M 60.87 40.07 L 43.17 33.94 L 82.55 3.79 L 83.56 4.68 L 60.87 40.07 L 60.87 40.07 Z M 46.14 33.44 L 60.36 38.37 L 80.33 7.27 L 46.14 33.44 L 46.14 33.44 Z M 46.14 33.44" />
    <path fill="#c1c1c1" fill-rule="evenodd" d="M 38.56 30.15 L 24.52 24.46 L 84.95 1.64 L 85.52 2.91 L 38.56 30.15 L 38.56 30.15 Z M 28.32 24.52 L 38.49 28.63 L 77.68 5.88 L 28.32 24.52 L 28.32 24.52 Z M 28.32 24.52" />
    <path fill="#c0f5ec" fill-rule="evenodd" d="M 56.86 43.95 L 58.49 44.92 L 47.41 63.62 L 45.78 62.66 L 56.86 43.95 L 56.86 43.95 Z M 56.86 43.95" />
    <path fill="#c0f5ec" fill-rule="evenodd" d="M 40.13 46.39 L 41.5 47.7 L 26.3 63.6 L 24.93 62.29 L 40.13 46.39 L 40.13 46.39 Z M 40.13 46.39" />
    <path fill="#c0f5ec" fill-rule="evenodd" d="M 30.96 34.45 L 31.96 36.06 L 12.04 48.43 L 11.04 46.82 L 30.96 34.45 L 30.96 34.45 Z M 30.96 34.45" />
    <path fill="#c0f5ec" fill-rule="evenodd" d="M 22.35 26.32 L 23.02 28.1 L 1 36.36 L 0.34 34.58 L 22.35 26.32 L 22.35 26.32 Z M 22.35 26.32" />
    <path fill="#c1c1c1" fill-rule="evenodd" d="M 61.12 103.15 L 59.92 102.33 L 83.75 66.56 L 28.19 87.73 L 38.75 92.47 L 38.24 93.67 L 24.59 87.67 L 87.22 63.71 L 61.12 103.15 Z M 61.12 103.15" />
    <path fill="#c1c1c1" fill-rule="evenodd" d="M 43.74 108.08 L 37.86 93.35 L 39.19 92.79 L 44.18 105.55 L 49.74 99.3 L 44.43 97.46 L 44.88 96.2 L 52.14 98.73 L 43.74 108.08 Z M 43.74 108.08" />
    <path fill="#c1c1c1" fill-rule="evenodd" d="M 43.61 107.26 L 43.23 97.08 L 44.62 97.08 L 44.94 104.16 L 50.69 98.73 L 51.7 99.68 L 43.61 107.26 Z M 43.61 107.26" />
    <path fill="#c1c1c1" fill-rule="evenodd" d="M 60.87 103.28 L 43.17 97.15 L 82.55 67 L 83.56 67.88 L 60.87 103.28 L 60.87 103.28 Z M 46.14 96.64 L 60.36 101.57 L 80.33 70.47 L 46.14 96.64 L 46.14 96.64 Z M 46.14 96.64" />
    <path fill="#c1c1c1" fill-rule="evenodd" d="M 38.56 93.35 L 24.52 87.67 L 84.95 64.85 L 85.52 66.11 L 38.56 93.35 L 38.56 93.35 Z M 28.32 87.73 L 38.49 91.84 L 77.68 69.08 L 28.32 87.73 L 28.32 87.73 Z M 28.32 87.73" />
    <path fill="#c0f5ec" fill-rule="evenodd" d="M 56.86 107.16 L 58.5 108.13 L 47.41 126.83 L 45.78 125.86 L 56.86 107.16 L 56.86 107.16 Z M 56.86 107.16" />
    <path fill="#c0f5ec" fill-rule="evenodd" d="M 40.13 109.61 L 41.5 110.93 L 26.29 126.82 L 24.92 125.51 L 40.13 109.61 L 40.13 109.61 Z M 40.13 109.61" />
    <path fill="#c0f5ec" fill-rule="evenodd" d="M 30.97 97.66 L 31.97 99.27 L 12.04 111.64 L 11.04 110.03 L 30.97 97.66 L 30.97 97.66 Z M 30.97 97.66" />
    <path fill="#c0f5ec" fill-rule="evenodd" d="M 22.34 89.52 L 23 91.3 L 0.99 99.55 L 0.32 97.77 L 22.34 89.52 L 22.34 89.52 Z M 22.34 89.52" />
</svg>