<?xml version="1.0" encoding="utf-8"?>
<!-- Generator: Avocode 2.6.0 - http://avocode.com -->
<svg height="5" width="9" xmlns:xlink="http://www.w3.org/1999/xlink" xmlns="http://www.w3.org/2000/svg" viewBox="0 0 9 5">
    <path fill="#666666" fill-rule="evenodd" d="M 3.32 2.51 L 6.94 -1.21 C 7.02 -1.3 7.02 -1.44 6.94 -1.52 L 6.54 -1.94 C 6.5 -1.98 6.44 -2 6.39 -2 C 6.33 -2 6.28 -1.98 6.24 -1.94 L 2.06 2.35 C 1.98 2.44 1.98 2.58 2.06 2.66 L 6.24 6.95 C 6.28 6.99 6.33 7.02 6.39 7.02 C 6.44 7.02 6.5 6.99 6.54 6.95 L 6.94 6.54 C 7.02 6.45 7.02 6.31 6.94 6.23 L 3.32 2.51 L 3.32 2.51 Z M 3.32 2.51" />
</svg>