<?xml version="1.0" encoding="UTF-8"?>
<svg width="20px" height="20px" viewBox="0 0 20 20" version="1.1" xmlns="http://www.w3.org/2000/svg" xmlns:xlink="http://www.w3.org/1999/xlink">
    <!-- Generator: Sketch 40.3 (33839) - http://www.bohemiancoding.com/sketch -->
    <title>Checkboxes / Checkbox On</title>
    <desc>Created with Sketch.</desc>
    <defs></defs>
    <g id="Page-1" stroke="none" stroke-width="1" fill="none" fill-rule="evenodd">
        <g id="Checkboxes-/-Checkbox-On">
            <g id="Checkbox">
                <rect id="Checkbox-BG-On" fill="#F3672F" x="0" y="0" width="20" height="20" rx="3"></rect>
                <path d="M14.6260507,6.3754392 C14.1274666,5.8748536 13.3194165,5.8748536 12.8208315,6.3754392 L8.30761983,10.9062649 L7.17915815,9.77340564 C6.68057314,9.27282003 5.87252313,9.27282003 5.37393813,9.77340564 C4.87535396,10.2739912 4.87535396,11.0853337 5.37393813,11.5856137 L7.40484732,13.6245609 C7.90343149,14.1251465 8.7114815,14.1251465 9.2100665,13.6245609 L14.6260349,8.18795282 C15.1246524,7.68736722 15.1246524,6.87602481 14.6260507,6.3754392 L14.6260507,6.3754392 L14.6260507,6.3754392 Z" id="auvicon-checkmark" fill="#FFFFFF"></path>
            </g>
        </g>
    </g>
</svg>