<?xml version="1.0" encoding="UTF-8" standalone="no"?>
<svg width="24px" height="30px" viewBox="0 0 24 30" version="1.1" xmlns="http://www.w3.org/2000/svg" xmlns:xlink="http://www.w3.org/1999/xlink">
    <!-- Generator: Sketch 42 (36781) - http://www.bohemiancoding.com/sketch -->
    <title>xls</title>
    <desc>Created with Sketch.</desc>
    <defs></defs>
    <g id="Page-1" stroke="none" stroke-width="1" fill="none" fill-rule="evenodd">
        <g id="Add_Icons_For_File_Type" transform="translate(-121.000000, -614.000000)" fill-rule="nonzero">
            <g id="xls" transform="translate(121.000000, 614.000000)">
                <g id="Capa_1">
                    <g id="Group">
                        <path d="M23.25,6.30362069 L22.8512069,5.90482759 L17.6296552,0.683275862 L17.2308621,0.284482759 C17.0503448,0.103965517 16.8,0 16.5439655,0 L1.53258621,0 C0.919137931,0 0.25862069,0.473793103 0.25862069,1.51344828 L0.25862069,20.1724138 L0.25862069,28.7260345 L0.25862069,28.9655172 C0.25862069,29.3984483 0.694137931,29.8205172 1.20931034,29.9534483 C1.23517241,29.9601724 1.26,29.97 1.28689655,29.9751724 C1.36758621,29.9912069 1.44982759,30 1.53258621,30 L22.2605172,30 C22.3432759,30 22.4255172,29.9912069 22.5062069,29.9751724 C22.5331034,29.97 22.557931,29.9601724 22.5837931,29.9534483 C23.0989655,29.8205172 23.5344828,29.3984483 23.5344828,28.9655172 L23.5344828,28.7260345 L23.5344828,20.1724138 L23.5344828,7.23 C23.5344828,6.83327586 23.4868966,6.54051724 23.25,6.30362069 Z M21.6905172,6.20689655 L17.3275862,6.20689655 L17.3275862,1.84396552 L21.6905172,6.20689655 Z M1.53258621,28.9655172 C1.49586207,28.9655172 1.46275862,28.952069 1.43017241,28.9401724 C1.34948276,28.9018966 1.29310345,28.8212069 1.29310345,28.7260345 L1.29310345,21.2068966 L22.5,21.2068966 L22.5,28.7260345 C22.5,28.8212069 22.4436207,28.9013793 22.362931,28.9401724 C22.3303448,28.952069 22.2972414,28.9655172 22.2605172,28.9655172 L1.53258621,28.9655172 Z M1.29310345,20.1724138 L1.29310345,1.51344828 C1.29310345,1.4012069 1.31017241,1.03448276 1.53258621,1.03448276 L16.3231034,1.03448276 C16.3060345,1.09965517 16.2931034,1.16689655 16.2931034,1.23672414 L16.2931034,7.24137931 L22.2977586,7.24137931 C22.3675862,7.24137931 22.4343103,7.22844828 22.4994828,7.21137931 C22.4994828,7.21913793 22.5,7.22224138 22.5,7.23 L22.5,20.1724138 L1.29310345,20.1724138 Z" id="Shape" fill="#B5B5B5"></path>
                        <polygon id="Shape" fill="#707070" points="8.39327586 22.7193103 7.39603448 24.8405172 7.32517241 24.8405172 6.40603448 22.7193103 5.43724138 22.7193103 6.84413793 25.3991379 5.52206897 27.9310345 6.50482759 27.9310345 7.39603448 25.965 7.46689655 25.965 8.29396552 27.9310345 9.27724138 27.9310345 7.95465517 25.3991379 9.36206897 22.7193103"></polygon>
                        <polygon id="Shape" fill="#707070" points="11.3984483 22.7193103 10.5356897 22.7193103 10.5356897 27.9310345 13.7958621 27.9310345 13.7958621 27.2875862 11.3984483 27.2875862"></polygon>
                        <path d="M17.037931,25.377931 C16.8755172,25.26 16.6996552,25.1596552 16.5108621,25.0774138 C16.322069,24.9951724 16.1477586,24.9103448 15.9874138,24.822931 C15.827069,24.7355172 15.6925862,24.6346552 15.5844828,24.5187931 C15.4758621,24.402931 15.422069,24.2508621 15.422069,24.0625862 C15.422069,23.987069 15.4406897,23.907931 15.4784483,23.8256897 C15.5162069,23.7434483 15.567931,23.6689655 15.6341379,23.6027586 C15.6998276,23.5365517 15.7753448,23.4817241 15.8606897,23.4367241 C15.9460345,23.3917241 16.035,23.3648276 16.1296552,23.3555172 C16.2993103,23.3415517 16.4384483,23.3389655 16.547069,23.3482759 C16.6551724,23.3581034 16.7425862,23.3741379 16.8087931,23.397931 C16.8744828,23.4217241 16.9256897,23.445 16.9608621,23.4687931 C16.9960345,23.4925862 17.0281034,23.5112069 17.0565517,23.5251724 C17.0612069,23.5205172 17.0751724,23.4967241 17.0989655,23.4543103 C17.1222414,23.4118966 17.1506897,23.3586207 17.1837931,23.295 C17.2163793,23.2313793 17.252069,23.1631034 17.2898276,23.0901724 C17.3275862,23.0167241 17.3606897,22.95 17.3886207,22.8884483 C17.2515517,22.7989655 17.0725862,22.7337931 16.8512069,22.6939655 C16.6293103,22.6541379 16.41,22.6339655 16.1937931,22.6339655 C15.9817241,22.6339655 15.78,22.6665517 15.5891379,22.7327586 C15.3982759,22.7989655 15.2306897,22.8946552 15.0868966,23.0193103 C14.9431034,23.1439655 14.8287931,23.2960345 14.7439655,23.4755172 C14.6591379,23.655 14.6167241,23.8598276 14.6167241,24.0905172 C14.6167241,24.345 14.6705172,24.557069 14.7791379,24.7267241 C14.8872414,24.8963793 15.0243103,25.0437931 15.1893103,25.1684483 C15.3543103,25.2931034 15.5312069,25.4017241 15.7194828,25.4937931 C15.9077586,25.5858621 16.0836207,25.6774138 16.2465517,25.7694828 C16.4094828,25.8615517 16.5444828,25.9639655 16.6531034,26.0772414 C16.7612069,26.1905172 16.8155172,26.327069 16.8155172,26.4874138 C16.8155172,26.7517241 16.7389655,26.9508621 16.5858621,27.0848276 C16.4327586,27.2193103 16.2118966,27.2865517 15.9248276,27.2865517 C15.8301724,27.2865517 15.7293103,27.2767241 15.6206897,27.2581034 C15.512069,27.2394828 15.4039655,27.2146552 15.2953448,27.1836207 C15.1867241,27.1525862 15.0817241,27.12 14.9808621,27.0848276 C14.8794828,27.0496552 14.7956897,27.012931 14.73,26.9751724 L14.5815517,27.5834483 C14.6617241,27.6543103 14.7568966,27.7143103 14.8681034,27.7639655 C14.9787931,27.8136207 15.0951724,27.8524138 15.2182759,27.8808621 C15.3408621,27.9093103 15.4624138,27.9294828 15.5824138,27.9408621 C15.7024138,27.9522414 15.8193103,27.9584483 15.9325862,27.9584483 C16.1963793,27.9584483 16.4322414,27.9186207 16.6396552,27.8384483 C16.847069,27.7582759 17.0213793,27.6512069 17.1631034,27.5167241 C17.3048276,27.3822414 17.4139655,27.2265517 17.492069,27.0501724 C17.5701724,26.8737931 17.6089655,26.6906897 17.6089655,26.5018966 C17.6089655,26.2236207 17.5546552,25.9960345 17.4465517,25.8196552 C17.3363793,25.6432759 17.2008621,25.4958621 17.037931,25.377931 Z" id="Shape" fill="#707070"></path>
                        <path d="M9.56896552,6.72413793 L3.36206897,6.72413793 L3.36206897,8.79310345 L3.36206897,9.82758621 L3.36206897,10.862069 L3.36206897,11.8965517 L3.36206897,12.9310345 L3.36206897,13.9655172 L3.36206897,15 L3.36206897,16.0344828 L3.36206897,18.1034483 L8.53448276,18.1034483 L9.56896552,18.1034483 L20.4310345,18.1034483 L20.4310345,16.0344828 L20.4310345,15 L20.4310345,13.9655172 L20.4310345,12.9310345 L20.4310345,11.8965517 L20.4310345,10.862069 L20.4310345,8.79310345 L9.56896552,8.79310345 L9.56896552,6.72413793 Z M4.39655172,9.82758621 L8.53448276,9.82758621 L8.53448276,10.862069 L4.39655172,10.862069 L4.39655172,9.82758621 Z M4.39655172,11.8965517 L8.53448276,11.8965517 L8.53448276,12.9310345 L4.39655172,12.9310345 L4.39655172,11.8965517 Z M4.39655172,13.9655172 L8.53448276,13.9655172 L8.53448276,15 L4.39655172,15 L4.39655172,13.9655172 Z M8.53448276,17.0689655 L4.39655172,17.0689655 L4.39655172,16.0344828 L8.53448276,16.0344828 L8.53448276,17.0689655 Z M19.3965517,17.0689655 L9.56896552,17.0689655 L9.56896552,16.0344828 L19.3965517,16.0344828 L19.3965517,17.0689655 Z M19.3965517,15 L9.56896552,15 L9.56896552,13.9655172 L19.3965517,13.9655172 L19.3965517,15 Z M19.3965517,12.9310345 L9.56896552,12.9310345 L9.56896552,11.8965517 L19.3965517,11.8965517 L19.3965517,12.9310345 Z M19.3965517,9.82758621 L19.3965517,10.862069 L9.56896552,10.862069 L9.56896552,9.82758621 L19.3965517,9.82758621 Z M4.39655172,8.79310345 L4.39655172,7.75862069 L8.53448276,7.75862069 L8.53448276,8.79310345 L4.39655172,8.79310345 Z" id="Shape" fill="#B5B5B5"></path>
                    </g>
                </g>
            </g>
        </g>
    </g>
</svg>