<?xml version="1.0" encoding="utf-8"?>
<!-- Generator: Avocode 2.6.0 - http://avocode.com -->
<svg height="190" width="190" xmlns:xlink="http://www.w3.org/1999/xlink" xmlns="http://www.w3.org/2000/svg" viewBox="0 0 190 190">
    <path fill="#face84" fill-rule="evenodd" d="M 66.5 23.48 C 66.5 19.06 70.09 15.49 74.5 15.49 L 150.04 15.49 C 154.46 15.49 158.05 19.06 158.05 23.48 L 158.05 130.36 C 158.05 134.77 154.46 138.35 150.04 138.35 L 74.5 138.35 C 70.08 138.35 66.5 134.77 66.5 130.36 L 66.5 23.48 Z M 66.5 23.48" />
    <path fill="#ffffff" fill-rule="evenodd" d="M 151.08 22.71 C 151.83 22.71 152.45 23.33 152.45 24.09 L 152.45 125.48 C 152.45 126.24 151.83 126.86 151.08 126.86 L 73.73 126.86 C 72.97 126.86 72.35 126.24 72.35 125.48 L 72.35 24.09 C 72.35 23.33 72.97 22.71 73.73 22.71 L 151.08 22.71 L 151.08 22.71 Z M 151.08 22.71" />
    <path fill="#edf0f2" fill-rule="evenodd" d="M 82.9 33.22 L 139.09 33.22 L 139.09 40.34 L 82.9 40.34 L 82.9 33.22 Z M 82.9 33.22" />
    <path fill="#edf0f2" fill-rule="evenodd" d="M 82.9 77.05 L 139.09 77.05 L 139.09 84.17 L 82.9 84.17 L 82.9 77.05 Z M 82.9 77.05" />
    <path fill="#edf0f2" fill-rule="evenodd" d="M 82.9 86.73 L 139.09 86.73 L 139.09 96.98 L 82.9 96.98 L 82.9 86.73 Z M 82.9 86.73" />
    <path fill="#edf0f2" fill-rule="evenodd" d="M 82.64 54.57 L 138.82 54.57 L 138.82 73.64 L 82.64 73.64 L 82.64 54.57 Z M 82.64 54.57" />
    <path fill="#edf0f2" fill-rule="evenodd" d="M 82.9 43.18 L 139.09 43.18 L 139.09 46.03 L 82.9 46.03 L 82.9 43.18 Z M 82.9 43.18" />
    <path fill="#edf0f2" fill-rule="evenodd" d="M 82.9 49.44 L 111.92 49.44 L 111.92 52.29 L 82.9 52.29 L 82.9 49.44 Z M 82.9 49.44" />
    <path fill="#edf0f2" fill-rule="evenodd" d="M 82.9 100.68 L 104 100.68 L 104 103.52 L 82.9 103.52 L 82.9 100.68 Z M 82.9 100.68" />
    <path fill="#edf0f2" fill-rule="evenodd" d="M 82.9 114.91 L 114.56 114.91 L 114.56 117.76 L 82.9 117.76 L 82.9 114.91 Z M 82.9 114.91" />
    <path fill="#d8d8d8" fill-rule="evenodd" d="M 111.58 20.65 C 117.29 20.65 121.91 16.03 121.91 10.32 C 121.91 4.62 117.29 0 111.58 0 C 105.88 0 101.26 4.62 101.26 10.32 C 101.26 16.03 105.88 20.65 111.58 20.65 Z M 111.58 20.65" />
    <path fill="#d8d8d8" fill-rule="evenodd" d="M 90.26 13.25 C 91.01 10.3 94.09 7.92 97.13 7.92 L 111.37 7.92 L 126.39 7.92 C 129.43 7.92 132.48 10.31 133.2 13.26 L 136.02 24.78 L 87.32 24.78 L 90.26 13.25 L 90.26 13.25 Z M 90.26 13.25" />
    <path fill="#ffffff" fill-rule="evenodd" d="M 116.4 8.95 C 116.4 6.29 114.25 4.13 111.58 4.13 C 108.92 4.13 106.77 6.29 106.77 8.95" />
    <path fill="#a7b7c2" fill-rule="evenodd" d="M 88.35 20.65 L 134.99 20.65 L 136.02 24.78 L 87.32 24.78 L 88.35 20.65 L 88.35 20.65 Z M 88.35 20.65" />
    <path fill="#edf0f2" fill-rule="evenodd" d="M 128.49 12.17 C 128.32 11.53 128.72 11.01 129.38 11.01 L 129.38 11.01 C 130.05 11.01 130.71 11.54 130.86 12.19 L 132.38 18.79 C 132.53 19.44 132.11 19.96 131.45 19.96 L 131.79 19.96 C 131.12 19.96 130.44 19.44 130.27 18.8 L 128.49 12.17 L 128.49 12.17 Z M 128.49 12.17" />
    <path fill="#ffffff" fill-rule="evenodd" d="M 150.68 135.72 L 140.46 138.67 L 146.13 158.54 L 156.36 155.59 L 150.68 135.72 L 150.68 135.72 Z M 150.68 135.72" />
    <path fill="#ffffff" fill-rule="evenodd" d="M 130.7 136 L 140.92 138.96 L 135.25 158.82 L 125.04 155.87 L 130.7 136 L 130.7 136 Z M 130.7 136" />
    <path fill="#ffffff" fill-rule="evenodd" d="M 141.01 138.16 C 149.45 138.16 156.29 131.35 156.29 122.94 C 156.29 114.54 149.45 107.72 141.01 107.72 C 132.57 107.72 125.73 114.54 125.73 122.94 C 125.73 131.35 132.57 138.16 141.01 138.16 Z M 141.01 138.16" />
    <path fill="#50e3c2" fill-rule="evenodd" d="M 141.01 138.93 C 132.15 138.93 124.96 131.75 124.96 122.94 C 124.96 114.13 132.15 106.95 141.01 106.95 C 149.86 106.95 157.06 114.13 157.06 122.94 C 157.06 131.78 149.86 138.93 141.01 138.93 L 141.01 138.93 L 141.01 138.93 Z M 141.01 108.52 C 133.02 108.52 126.5 114.99 126.5 122.97 C 126.5 130.94 133.02 137.41 141.01 137.41 C 149 137.41 155.52 130.94 155.52 122.97 C 155.52 114.99 149 108.52 141.01 108.52 L 141.01 108.52 L 141.01 108.52 Z M 141.01 108.52" />
    <path fill="#50e3c2" fill-rule="evenodd" d="M 146.24 104.62 L 146.88 108.08 L 143.86 107.22 L 146.24 104.62 L 146.24 104.62 L 146.24 104.62 Z M 149.95 106.09 L 149.86 109.6 L 147.08 108.12 L 149.95 106.09 L 149.95 106.09 L 149.95 106.09 Z M 153.27 108.32 L 152.45 111.73 L 150.04 109.71 L 153.27 108.32 L 153.27 108.32 L 153.27 108.32 Z M 156.05 111.18 L 154.55 114.35 L 152.6 111.86 L 156.05 111.18 L 156.05 111.18 L 156.05 111.18 Z M 158.17 114.55 L 156.03 117.35 L 154.63 114.53 L 158.17 114.55 L 158.17 114.55 L 158.17 114.55 Z M 159.54 118.27 L 156.86 120.56 L 156.09 117.53 L 159.54 118.27 L 159.54 118.27 L 159.54 118.27 Z M 160.11 122.22 L 157.02 123.89 L 156.91 120.74 L 160.11 122.22 L 160.11 122.22 L 160.11 122.22 Z M 159.85 126.18 L 156.47 127.19 L 157.02 124.09 L 159.85 126.18 L 159.85 126.18 L 159.85 126.18 Z M 158.74 130.01 L 155.23 130.3 L 156.4 127.39 L 158.74 130.01 L 158.74 130.01 L 158.74 130.01 Z M 156.89 133.54 L 153.4 133.08 L 155.16 130.48 L 156.89 133.54 L 156.89 133.54 L 156.89 133.54 Z M 154.32 136.58 L 151.01 135.41 L 153.27 133.23 L 154.32 136.58 L 154.32 136.58 L 154.32 136.58 Z M 151.17 139.04 L 148.16 137.22 L 150.84 135.54 L 151.17 139.04 L 151.17 139.04 L 151.17 139.04 Z M 147.59 140.81 L 145.03 138.41 L 147.99 137.33 L 147.59 140.81 L 147.59 140.81 L 147.59 140.81 Z M 143.73 141.78 L 141.74 138.89 L 144.85 138.45 L 143.73 141.78 L 143.73 141.78 L 143.73 141.78 Z M 139.73 141.91 L 138.38 138.67 L 141.52 138.89 L 139.73 141.91 L 139.73 141.91 L 139.73 141.91 Z M 135.78 141.23 L 135.14 137.77 L 138.16 138.63 L 135.78 141.23 L 135.78 141.23 L 135.78 141.23 Z M 132.07 139.75 L 132.15 136.25 L 134.94 137.72 L 132.07 139.75 L 132.07 139.75 L 132.07 139.75 Z M 128.75 137.52 L 129.57 134.11 L 131.98 136.14 L 128.75 137.52 L 128.75 137.52 L 128.75 137.52 Z M 125.97 134.68 L 127.47 131.51 L 129.42 133.98 L 125.97 134.68 L 125.97 134.68 L 125.97 134.68 Z M 123.85 131.31 L 125.99 128.52 L 127.39 131.34 L 123.85 131.31 L 123.85 131.31 L 123.85 131.31 Z M 122.48 127.57 L 125.16 125.28 L 125.93 128.32 L 122.48 127.57 L 122.48 127.57 L 122.48 127.57 Z M 121.91 123.63 L 125 121.95 L 125.11 125.1 L 121.91 123.63 L 121.91 123.63 L 121.91 123.63 Z M 122.17 119.66 L 125.55 118.65 L 125 121.75 L 122.17 119.66 L 122.17 119.66 L 122.17 119.66 Z M 123.28 115.83 L 126.79 115.54 L 125.62 118.45 L 123.28 115.83 L 123.28 115.83 L 123.28 115.83 Z M 125.13 112.33 L 128.62 112.79 L 126.86 115.39 L 125.13 112.33 L 125.13 112.33 L 125.13 112.33 Z M 127.69 109.27 L 131.01 110.43 L 128.73 112.61 L 127.69 109.27 L 127.69 109.27 L 127.69 109.27 Z M 130.85 106.8 L 133.86 108.63 L 131.18 110.3 L 130.85 106.8 L 130.85 106.8 L 130.85 106.8 Z M 134.43 105.06 L 136.99 107.46 L 134.03 108.54 L 134.43 105.06 L 134.43 105.06 L 134.43 105.06 Z M 138.32 104.09 L 140.3 106.97 L 137.19 107.42 L 138.32 104.09 L 138.32 104.09 L 138.32 104.09 Z M 142.29 103.94 L 143.64 107.17 L 140.5 106.95 L 142.29 103.94 L 142.29 103.94 L 142.29 103.94 Z M 142.29 103.94" />
    <path fill="#50e3c2" fill-rule="evenodd" d="M 130.7 136 L 140.92 138.96 L 135.25 158.82 L 125.04 155.87 L 130.7 136 L 130.7 136 Z M 130.7 136" />
    <path fill="#ffffff" fill-rule="evenodd" d="M 131.89 150.65 L 134.8 158.98 L 125.04 156.16 L 131.89 150.65 L 131.89 150.65 Z M 131.89 150.65" />
    <path fill="#50e3c2" fill-rule="evenodd" d="M 150.68 135.72 L 140.46 138.67 L 146.13 158.54 L 156.36 155.59 L 150.68 135.72 L 150.68 135.72 Z M 150.68 135.72" />
    <path fill="#ffffff" fill-rule="evenodd" d="M 149.49 150.37 L 146.57 158.69 L 156.36 155.87 L 149.49 150.37 L 149.49 150.37 Z M 149.49 150.37" />
    <path fill="#ffffff" fill-rule="evenodd" d="M 141.12 134.88 C 147.64 134.88 152.93 129.61 152.93 123.1 C 152.93 116.59 147.64 111.31 141.12 111.31 C 134.6 111.31 129.31 116.59 129.31 123.1 C 129.31 129.61 134.6 134.88 141.12 134.88 Z M 141.12 134.88" />
    <path fill="#50e3c2" fill-rule="evenodd" d="M 141.12 135.54 C 134.25 135.54 128.64 129.97 128.64 123.1 C 128.64 116.25 134.23 110.65 141.12 110.65 C 147.99 110.65 153.6 116.23 153.6 123.1 C 153.6 129.95 147.99 135.54 141.12 135.54 L 141.12 135.54 L 141.12 135.54 Z M 141.12 111.97 C 134.98 111.97 129.97 116.95 129.97 123.1 C 129.97 129.22 134.96 134.22 141.12 134.22 C 147.28 134.22 152.27 129.24 152.27 123.1 C 152.27 116.97 147.26 111.97 141.12 111.97 L 141.12 111.97 L 141.12 111.97 Z M 141.12 111.97" />
    <path fill="#fec465" fill-rule="evenodd" d="M 95.9 59.41 L 187.06 59.41 C 188.67 59.41 189.98 60.72 189.98 62.33 L 189.98 186.68 C 189.98 188.28 188.67 189.59 187.06 189.59 L 95.9 189.59 C 94.29 189.59 92.98 188.28 92.98 186.68 L 92.98 62.33 C 92.98 60.72 94.29 59.41 95.9 59.41 L 95.9 59.41 Z M 95.9 59.41" />
    <path fill="#ffffff" fill-rule="evenodd" d="M 99.18 65.61 L 184.14 65.61 L 184.14 179.75 L 99.18 179.75 L 99.18 65.61 Z M 99.18 65.61" />
    <path fill="#bff4ec" fill-rule="evenodd" d="M 110.85 119.94 L 127.26 119.94 L 127.26 158.23 L 110.85 158.23 L 110.85 119.94 Z M 110.85 119.94" />
    <path fill="#50e3c2" fill-rule="evenodd" d="M 133.46 131.98 L 149.87 131.98 L 149.87 158.23 L 133.46 158.23 L 133.46 131.98 Z M 133.46 131.98" />
    <path fill="#78c3b7" fill-rule="evenodd" d="M 156.06 111.56 L 172.47 111.56 L 172.47 158.23 L 156.06 158.23 L 156.06 111.56 Z M 156.06 111.56" />
    <path fill="#979797" fill-rule="evenodd" d="M 119.46 106.01 L 142.62 117.97 L 141.95 119.27 L 118.79 107.3 L 119.46 106.01 L 119.46 106.01 Z M 119.46 106.01" />
    <path fill="#979797" fill-rule="evenodd" d="M 118.18 105.43 L 119.16 106.52 L 111.14 113.69 L 110.17 112.6 L 118.18 105.43 L 118.18 105.43 Z M 118.18 105.43" />
    <path fill="#979797" fill-rule="evenodd" d="M 163.06 98.84 L 164.02 99.95 L 141.57 119.32 L 140.62 118.21 L 163.06 98.84 L 163.06 98.84 Z M 163.06 98.84" />
    <path fill="#979797" fill-rule="evenodd" d="M 163.75 98.17 L 172.36 102.48 L 171.71 103.78 L 163.1 99.48 L 163.75 98.17 L 163.75 98.17 Z M 163.75 98.17" />
    <path fill="#bff4ec" fill-rule="evenodd" d="M 118.69 109 C 120 109 121.06 107.94 121.06 106.63 C 121.06 105.32 120 104.26 118.69 104.26 C 117.38 104.26 116.32 105.32 116.32 106.63 C 116.32 107.94 117.38 109 118.69 109 Z M 118.69 109" />
    <path fill="#50e3c2" fill-rule="evenodd" d="M 141.66 121.04 C 142.97 121.04 144.03 119.98 144.03 118.67 C 144.03 117.36 142.97 116.3 141.66 116.3 C 140.35 116.3 139.29 117.36 139.29 118.67 C 139.29 119.98 140.35 121.04 141.66 121.04 Z M 141.66 121.04" />
    <path fill="#78c3b7" fill-rule="evenodd" d="M 163.9 101.71 C 165.21 101.71 166.27 100.65 166.27 99.34 C 166.27 98.03 165.21 96.97 163.9 96.97 C 162.6 96.97 161.53 98.03 161.53 99.34 C 161.53 100.65 162.6 101.71 163.9 101.71 Z M 163.9 101.71" />
    <path fill="#d8d8d8" fill-rule="evenodd" d="M 172.11 162.61 C 172.91 162.61 173.57 163.01 173.57 163.52 C 173.57 164.03 172.91 164.43 172.11 164.43 L 111.58 164.43 C 110.77 164.43 110.12 164.03 110.12 163.52 C 110.12 163.01 110.77 162.61 111.58 162.61 L 172.11 162.61 Z M 172.11 162.61" />
    <path fill="#d8d8d8" fill-rule="evenodd" d="M 111.58 86.03 L 126.89 86.03 C 127.69 86.03 128.35 86.43 128.35 86.94 C 128.35 87.45 127.69 87.85 126.89 87.85 L 111.58 87.85 C 110.77 87.85 110.12 87.45 110.12 86.94 C 110.12 86.43 110.77 86.03 111.58 86.03 L 111.58 86.03 Z M 111.58 86.03" />
    <path fill="#d8d8d8" fill-rule="evenodd" d="M 111.58 167.71 L 172.11 167.71 C 172.91 167.71 173.57 168.12 173.57 168.63 C 173.57 169.14 172.91 169.54 172.11 169.54 L 111.58 169.54 C 110.77 169.54 110.12 169.14 110.12 168.63 C 110.12 168.12 110.77 167.71 111.58 167.71 L 111.58 167.71 Z M 111.58 167.71" />
    <path fill="#d8d8d8" fill-rule="evenodd" d="M 111.58 172.82 L 172.11 172.82 C 172.91 172.82 173.57 173.22 173.57 173.73 C 173.57 174.24 172.91 174.64 172.11 174.64 L 111.58 174.64 C 110.77 174.64 110.12 174.24 110.12 173.73 C 110.12 173.22 110.77 172.82 111.58 172.82 L 111.58 172.82 Z M 111.58 172.82" />
    <path fill="#d8d8d8" fill-rule="evenodd" d="M 140.75 64.88 C 146.79 64.88 151.69 59.98 151.69 53.94 C 151.69 47.9 146.79 43 140.75 43 C 134.71 43 129.81 47.9 129.81 53.94 C 129.81 59.98 134.71 64.88 140.75 64.88 Z M 140.75 64.88" />
    <path fill="#d8d8d8" fill-rule="evenodd" d="M 118.14 57.04 C 118.94 53.9 122.19 51.39 125.43 51.39 L 140.53 51.39 L 156.43 51.39 C 159.64 51.39 162.88 53.94 163.65 57.04 L 166.64 69.26 L 115.04 69.26 L 118.14 57.04 L 118.14 57.04 Z M 118.14 57.04" />
    <path fill="#ffffff" fill-rule="evenodd" d="M 145.85 52.48 C 145.85 49.67 143.56 47.38 140.75 47.38 C 137.94 47.38 135.64 49.67 135.64 52.48" />
    <path fill="#a7b7c2" fill-rule="evenodd" d="M 116.13 64.88 L 165.55 64.88 L 166.64 69.26 L 115.04 69.26 L 116.13 64.88 Z M 116.13 64.88" />
    <path fill="#edf0f2" fill-rule="evenodd" d="M 158.65 55.91 C 158.47 55.22 158.91 54.67 159.6 54.67 C 160.29 54.67 161.02 55.22 161.17 55.91 L 162.77 62.91 C 162.92 63.6 162.48 64.15 161.79 64.15 L 162.15 64.15 C 161.46 64.15 160.73 63.6 160.55 62.91 L 158.65 55.91 L 158.65 55.91 Z M 158.65 55.91" />
    <path stroke-linejoin="miter" stroke-linecap="square" stroke-width="4" stroke="#bff4ec" fill="none" fill-rule="evenodd" d="M 54.41 99 L 21.68 99" />
    <path stroke-linejoin="miter" stroke-linecap="square" stroke-width="4" stroke="#bff4ec" fill="none" fill-rule="evenodd" d="M 54.41 119 L 2 119" />
    <path stroke-linejoin="miter" stroke-linecap="square" stroke-width="4" stroke="#bff4ec" fill="none" fill-rule="evenodd" d="M 54.41 139 L 21.68 139" />
    <path stroke-linejoin="miter" stroke-linecap="square" stroke-width="4" stroke="#bff4ec" fill="none" fill-rule="evenodd" d="M 69.74 159 L 37.02 159" />
</svg>